%YAML 1.1
%TAG !u! tag:unity3d.com,2011:
--- !u!1001 &5149808961118815969
PrefabInstance:
  m_ObjectHideFlags: 0
  serializedVersion: 2
  m_Modification:
    m_TransformParent: {fileID: 0}
    m_Modifications:
    - target: {fileID: 4787599582799550054, guid: 9e08ab94e34e46241b85c5280c35016c, type: 3}
      propertyPath: m_Radius
      value: 0.35
      objectReference: {fileID: 0}
    - target: {fileID: 5080697596460274542, guid: 9e08ab94e34e46241b85c5280c35016c, type: 3}
      propertyPath: speed
      value: 15
      objectReference: {fileID: 0}
    - target: {fileID: 8775702841623414136, guid: 9e08ab94e34e46241b85c5280c35016c, type: 3}
      propertyPath: m_RootOrder
      value: 0
      objectReference: {fileID: 0}
    - target: {fileID: 8775702841623414136, guid: 9e08ab94e34e46241b85c5280c35016c, type: 3}
      propertyPath: m_LocalPosition.x
      value: 0
      objectReference: {fileID: 0}
    - target: {fileID: 8775702841623414136, guid: 9e08ab94e34e46241b85c5280c35016c, type: 3}
      propertyPath: m_LocalPosition.y
      value: 0
      objectReference: {fileID: 0}
    - target: {fileID: 8775702841623414136, guid: 9e08ab94e34e46241b85c5280c35016c, type: 3}
      propertyPath: m_LocalPosition.z
      value: 0
      objectReference: {fileID: 0}
    - target: {fileID: 8775702841623414136, guid: 9e08ab94e34e46241b85c5280c35016c, type: 3}
      propertyPath: m_LocalRotation.w
      value: 1
      objectReference: {fileID: 0}
    - target: {fileID: 8775702841623414136, guid: 9e08ab94e34e46241b85c5280c35016c, type: 3}
      propertyPath: m_LocalRotation.x
      value: 0
      objectReference: {fileID: 0}
    - target: {fileID: 8775702841623414136, guid: 9e08ab94e34e46241b85c5280c35016c, type: 3}
      propertyPath: m_LocalRotation.y
      value: 0
      objectReference: {fileID: 0}
    - target: {fileID: 8775702841623414136, guid: 9e08ab94e34e46241b85c5280c35016c, type: 3}
      propertyPath: m_LocalRotation.z
      value: 0
      objectReference: {fileID: 0}
    - target: {fileID: 8775702841623414136, guid: 9e08ab94e34e46241b85c5280c35016c, type: 3}
      propertyPath: m_LocalEulerAnglesHint.x
      value: 0
      objectReference: {fileID: 0}
    - target: {fileID: 8775702841623414136, guid: 9e08ab94e34e46241b85c5280c35016c, type: 3}
      propertyPath: m_LocalEulerAnglesHint.y
      value: 0
      objectReference: {fileID: 0}
    - target: {fileID: 8775702841623414136, guid: 9e08ab94e34e46241b85c5280c35016c, type: 3}
      propertyPath: m_LocalEulerAnglesHint.z
      value: 0
      objectReference: {fileID: 0}
    - target: {fileID: 8775702841623414139, guid: 9e08ab94e34e46241b85c5280c35016c, type: 3}
      propertyPath: m_Name
      value: EnemyGunProjectile
      objectReference: {fileID: 0}
    - target: {fileID: 8775702841623414139, guid: 9e08ab94e34e46241b85c5280c35016c, type: 3}
      propertyPath: m_Layer
      value: 0
      objectReference: {fileID: 0}
    - target: {fileID: 8775702842605868337, guid: 9e08ab94e34e46241b85c5280c35016c, type: 3}
      propertyPath: m_Layer
      value: 0
      objectReference: {fileID: 0}
    - target: {fileID: 8775702842605868340, guid: 9e08ab94e34e46241b85c5280c35016c, type: 3}
      propertyPath: m_Materials.Array.data[0]
      value: 
      objectReference: {fileID: 2100000, guid: f803e399c3f57fe45a8fa7cca86d6727, type: 2}
    - target: {fileID: 8775702842605868342, guid: 9e08ab94e34e46241b85c5280c35016c, type: 3}
      propertyPath: m_LocalScale.x
      value: 0.7
      objectReference: {fileID: 0}
    - target: {fileID: 8775702842605868342, guid: 9e08ab94e34e46241b85c5280c35016c, type: 3}
      propertyPath: m_LocalScale.y
      value: 0.7
      objectReference: {fileID: 0}
    - target: {fileID: 8775702842605868342, guid: 9e08ab94e34e46241b85c5280c35016c, type: 3}
      propertyPath: m_LocalScale.z
      value: 0.7
      objectReference: {fileID: 0}
    m_RemovedComponents: []
  m_SourcePrefab: {fileID: 100100000, guid: 9e08ab94e34e46241b85c5280c35016c, type: 3}
